…
This code chunk imports the `tidyverse`, creates a data frame and makes
a histogram.

``` r
set.seed(1234)

plot_df = 
  tibble(
    x = rnorm(1000, sd = 0.5),
    y = 1 + 2*x + rnorm(1000),
    y_quad = 1 + 2 * x^2 + rnorm(1000)
  )
plot_df
## # A tibble: 1,000 x 3
##         x      y  y_quad
##     <dbl>  <dbl>   <dbl>
##  1 -0.604 -1.41   0.755 
##  2  0.139  1.58   0.939 
##  3  0.542  0.545  1.48  
##  4 -1.17  -0.710  4.94  
##  5  0.215  2.13  -0.564 
##  6  0.253 -0.400  0.0824
##  7 -0.287  1.36  -0.575 
##  8 -0.273  0.229  1.66  
##  9 -0.282 -0.238  0.713 
## 10 -0.445  0.556 -0.443 
## # ... with 990 more rows
…
